{
  "applinks.view.admin" : [],
  "applinks.view.entitylinks.admin": [
    {
      "typeId": [
        "com.atlassian.applinks.api.application.bamboo.BambooProjectEntityType",
        "com.atlassian.applinks.api.application.bitbucket.BitbucketProjectEntityType",
        "com.atlassian.applinks.api.application.confluence.ConfluenceSpaceEntityType",
        "com.atlassian.applinks.api.application.fecru.FishEyeRepositoryEntityType",
        "com.atlassian.applinks.api.application.fecru.FishEyeCrucibleProjectEntityType",
        "com.atlassian.applinks.api.application.generic.GenericEntityType",
        "com.atlassian.applinks.api.application.jira.JiraProjectEntityType",
        "com.atlassian.applinks.api.application.refapp.RefAppCharlieEntityType"
      ]
    },
    "entityKey"
  ],
  "applinks.view.documentation": [
    {
      "linkKey": [
        "applinks.docs.delete.entity.link",
        "applinks.docs.administering.entity.links",
        "applinks.docs.delete.application.link",
        "applinks.docs.relocate.application.link",
        "applinks.docs.upgrade.application.link",
        "applinks.docs.configuring.auth.basic",
        "applinks.docs.configuring.auth.oauth",
        "applinks.docs.configuring.auth.trusted.apps",
        "applinks.docs.configuring.application.link.auth",
        "applinks.docs.adding.application.link",
        "applinks.docs.adding.entity.link",
        "applinks.docs.adding.project.link",
        "applinks.docs.configured.authentication.types",
        "applinks.docs.administration.guide",
        "applinks.docs.diagnostics.troubleshoot.connectionrefused",
        "applinks.docs.diagnostics.troubleshoot.unknownhost",
        "applinks.docs.diagnostics.troubleshoot.authlevelmismatch",
        "applinks.docs.diagnostics.troubleshoot.unknownerror",
        "applinks.docs.diagnostics.troubleshoot.authlevelunsupported",
        "applinks.docs.diagnostics.troubleshoot.ssluntrusted",
        "applinks.docs.diagnostics.troubleshoot.sslunmatched",
        "applinks.docs.diagnostics.troubleshoot.oauthproblem",
        "applinks.docs.diagnostics.troubleshoot.oauthsignatureinvalid",
        "applinks.docs.diagnostics.troubleshoot.oauthtimestamprefused",
        "applinks.docs.diagnostics.troubleshoot.unexpectedresponse",
        "applinks.docs.diagnostics.troubleshoot.migration",
        "applinks.docs.oauth.security",
        "applinks.docs.link.applications",
        "applinks.docs.troubleshoot.application.links",
        "applinks.docs.insufficient.remote.permission",
        "applinks.docs.diagnostics"
      ]
    }
  ],

  "applinks.detailed.status" : [
    "applicationId",
    "type",
    {
      "category": [
        "working",
        "unknown",
        "incompatible",
        "non_atlassian",
        "system",
        "network_error",
        "access_error",
        "config_error",
        "deprecated",
        "disabled"
      ]
    }, {
      "status" : [
        "working",
        "unknown",
        "no_outgoing_auth",
        "remote_version_incompatible",
        "generic_link",
        "non_atlassian",
        "system_link",
        "connection_refused",
        "unknown_host",
        "ssl_untrusted",
        "ssl_hostname_unmatched",
        "ssl_unmatched",
        "unexpected_response",
        "oauth_problem",
        "oauth_timestamp_refused",
        "oauth_signature_invalid",
        "unexpected_response",
        "unexpected_response_status",
        "local_auth_token_required",
        "remote_auth_token_required",
        "insufficient_remote_permission",
        "no_remote_applink",
        "auth_level_mismatch",
        "auth_level_unsupported",
        "legacy_update",
        "legacy_removal",
        "manual_legacy_update",
        "manual_legacy_removal",
        "manual_legacy_removal_with_old_edit",
        "disabled"
      ]
    },
    "basic",
    "trusted",
    "oauthTwoLO",
    "oauthTwoLOi",
    "oauthThreeLO",
    "cors",
    "other"
  ],
  "applinks.status.dialog.opened": [
    "applicationId",
    {
      "category": [
        "working",
        "unknown",
        "incompatible",
        "non_atlassian",
        "system",
        "network_error",
        "access_error",
        "config_error",
        "deprecated",
        "disabled"
      ]
    }, {
      "status": [
        "working",
        "unknown",
        "no_outgoing_auth",
        "remote_version_incompatible",
        "generic_link",
        "non_atlassian",
        "system_link",
        "connection_refused",
        "unknown_host",
        "ssl_untrusted",
        "ssl_hostname_unmatched",
        "ssl_unmatched",
        "unexpected_response",
        "oauth_problem",
        "oauth_timestamp_refused",
        "oauth_signature_invalid",
        "unexpected_response",
        "unexpected_response_status",
        "local_auth_token_required",
        "remote_auth_token_required",
        "insufficient_remote_permission",
        "no_remote_applink",
        "auth_level_mismatch",
        "auth_level_unsupported",
        "legacy_update",
        "legacy_removal",
        "manual_legacy_update",
        "manual_legacy_removal",
        "manual_legacy_removal_with_old_edit",
        "disabled"
      ]
    }
  ],
  "applinks.status.snapshot": [
    "total",
    "working",
    "failing",
    "buildNumber",
    "productVersion",
    "product",
    "applicationId",
    "pluginVersion",
    {
      "occurrence": [
        "bamboo",
        "bitbucket",
        "confluence",
        "crowd",
        "fecru",
        "generic",
        "jira",
        "stash",
        "refapp"
      ]
    }
  ],
  "applinks.status.applink": [
    "applicationId",
    "remoteApplicationId",
    "isWorking",
    {
      "product": [
        "bamboo",
        "bitbucket",
        "confluence",
        "crowd",
        "fecru",
        "generic",
        "jira",
        "stash",
        "refapp",
        "unknown"
      ],
      "remoteProduct": [
        "bamboo",
        "bitbucket",
        "confluence",
        "crowd",
        "fecru",
        "generic",
        "jira",
        "stash",
        "refapp",
        "unknown"
      ],
      "auth": [
        "basic",
        "trusted",
        "twoLo",
        "twoLoi",
        "threeLo",
        "cors",
        "other"
      ],
      "errorCategory": [
        "UNKNOWN",
        "INCOMPATIBLE",
        "NON_ATLASSIAN",
        "SYSTEM",
        "DEPRECATED",
        "NETWORK_ERROR",
        "ACCESS_ERROR",
        "CONFIG_ERROR",
        "DISABLED"
      ],
      "errorDetail": [
        "working",
        "unknown",
        "no_outgoing_auth",
        "remote_version_incompatible",
        "generic_link",
        "non_atlassian",
        "system_link",
        "connection_refused",
        "unknown_host",
        "ssl_untrusted",
        "ssl_hostname_unmatched",
        "ssl_unmatched",
        "unexpected_response",
        "oauth_problem",
        "oauth_timestamp_refused",
        "oauth_signature_invalid",
        "unexpected_response",
        "unexpected_response_status",
        "local_auth_token_required",
        "remote_auth_token_required",
        "insufficient_remote_permission",
        "no_remote_applink",
        "auth_level_mismatch",
        "auth_level_unsupported",
        "legacy_update",
        "legacy_removal",
        "manual_legacy_update",
        "manual_legacy_removal",
        "manual_legacy_removal_with_old_edit",
        "disabled"
      ]
    }
  ],
  "applinks.created": [
    "applicationId",
    {
      "product": [
        "bamboo",
        "bitbucket",
        "confluence",
        "crowd",
        "fecru",
        "generic",
        "jira",
        "stash",
        "refapp",
        "unknown"
      ],
      "status": [
        "FAILURE",
        "WARNING",
        "SUCCESS"
      ],
      "reason": [
        "ALREADY_CONFIGURED",
        "ALREADY_CONFIGURED_UNDER_DIFFERENT_URL",
        "INVALID_URL",
        "LINK_TO_SELF",
        "NO_DOUBLE_SLASHES",
        "NO_RESPONSE",
        "NULL_MANIFEST",
        "REDIRECT",
        "TYPE_NOT_INSTALLED"
      ]
    }
  ],
  "applinks.edit": [
    "applicationId",
    {
      "applicationType" : [
        "bamboo",
        "crowd",
        "confluence",
        "fecru",
        "jira",
        "generic",
        "stash",
        "refapp"
      ]
    }
  ]
}
